{
  "__type__": "cc.Material",
  "_name": "",
  "_objFlags": 0,
  "_native": "",
  "_effectAsset": {
    "__uuid__": "2ec11458-f855-4978-b14d-f3ed5cf697fa",
    "__expectedType__": "cc.EffectAsset"
  },
  "_techIdx": 1,
  "_defines": [
    {
      "USE_TRANSPARENCY_MAP": true,
      "ALPHA_SOURCE_IS_OPACITY": true,
      "USE_ALPHA_TEST": true
    },
    {},
    {}
  ],
  "_states": [
    {
      "rasterizerState": {},
      "depthStencilState": {},
      "blendState": {
        "targets": [
          {}
        ]
      }
    },
    {
      "rasterizerState": {},
      "depthStencilState": {},
      "blendState": {
        "targets": [
          {}
        ]
      }
    },
    {
      "rasterizerState": {},
      "depthStencilState": {},
      "blendState": {
        "targets": [
          {}
        ]
      }
    }
  ],
  "_props": [
    {
      "mainColor": {
        "__type__": "cc.Color",
        "r": 0,
        "g": 255,
        "b": 20,
        "a": 255
      },
      "mainTexture": {
        "__uuid__": "64f0adbe-b240-460c-aa00-a25a878b086e@6c48a",
        "__expectedType__": "cc.Texture2D"
      },
      "metallic": 0,
      "alphaSource": 0.8,
      "alphaThreshold": 0
    },
    {},
    {}
  ]
}